Agenda :


Module 1: Introduction to Cloud Computing 

Learning Objectives:
    - Understand the basics of cloud computing
    - Learn about different cloud vendors and types of cloud service models

Topics:
    - What is Cloud Computing?
    - Why Cloud Computing?
    - What are the characteristics of Cloud Computing?
    - What are the types of Cloud Computing?
    - What are the types of cloud implementation models?
    - What are the advantages of Cloud Computing?
    - What is Virtualization?
    - What are the types of Virtualization?
    - What are the benefits of Virtualization?

Register / Login To Azure Cloud :

https:


#-----------------------------------------------------------------#

Global Infrastructure :

Geography :
    - Physical Location :
        - Regions 
        - Availability Zones 
        - Regions With Availability Zones 

    
#-----------------------------------------------------------------#
Free account with Azure :

1. 12 Months Free Azure Portal Access 

2. 14,500 Inr free credits for 30 days validity to explore other azure services 

3. Always Free 25+ Services 

4. 12 Months of free account you will get popular free services 


#-----------------------------------------------------------------#

https://git-scm.com/

https://code.visualstudio.com/download

https://docs.microsoft.com/en-us/cli/azure/install-azure-cli

